
     Program PWSCF v.6.3 starts on 28Oct2019 at 14: 9:31 

     This program is part of the open-source Quantum ESPRESSO suite
     for quantum simulation of materials; please cite
         "P. Giannozzi et al., J. Phys.:Condens. Matter 21 395502 (2009);
         "P. Giannozzi et al., J. Phys.:Condens. Matter 29 465901 (2017);
          URL http://www.quantum-espresso.org", 
     in publications or presentations arising from this work. More details at
     http://www.quantum-espresso.org/quote

     Parallel version (MPI), running on     1 processors

     MPI processes distributed on     1 nodes
     Reading input from pw.nacl.nscf.in

     Current dimensions of program PWSCF are:
     Max number of different atomic species (ntypx) = 10
     Max number of k-points (npk) =  40000
     Max angular momentum in pseudopotentials (lmaxx) =  3

     Atomic positions and unit cell read from directory:
     /tmp/nacl.save/


     Subspace diagonalization in iterative solution of the eigenvalue problem:
     a serial algorithm will be used


     G-vector sticks info
     --------------------
     sticks:   dense  smooth     PW     G-vecs:    dense   smooth      PW
     Sum         725     725    221                36047    36047    5789


     Title: 
     nacl                                                                       


     bravais-lattice index     =            0
     lattice parameter (alat)  =       7.5371  a.u.
     unit-cell volume          =    1054.2299 (a.u.)^3
     number of atoms/cell      =            4
     number of atomic types    =            2
     number of electrons       =        32.00
     number of Kohn-Sham states=           20
     kinetic-energy cutoff     =      40.0000  Ry
     charge density cutoff     =     160.0000  Ry
     Exchange-correlation      = PBE ( 1  4  3  4 0 0)

     celldm(1)=   7.537135  celldm(2)=   0.000000  celldm(3)=   2.462161
     celldm(4)=   0.000000  celldm(5)=   0.000000  celldm(6)=   0.000000

     crystal axes: (cart. coord. in units of alat)
               a(1) = (   1.000000   0.000000   0.000000 )  
               a(2) = (   0.000000   1.000000   0.000000 )  
               a(3) = (   0.000000   0.000000   2.462161 )  

     reciprocal axes: (cart. coord. in units 2 pi/alat)
               b(1) = (  1.000000  0.000000  0.000000 )  
               b(2) = (  0.000000  1.000000  0.000000 )  
               b(3) = (  0.000000  0.000000  0.406147 )  


     PseudoPot. # 1 for Na read from file:
     ../../pseudo/Na_PBE_ONCVPSP.upf
     MD5 check sum: ed5af011864af3d1529ce3b51bbccf87
     Pseudo is Norm-conserving, Zval =  9.0
     Generated using ONCVPSP code by D. R. Hamann
     Using radial grid of 1992 points,  4 beta functions with: 
                l(1) =   0
                l(2) =   0
                l(3) =   1
                l(4) =   1

     PseudoPot. # 2 for Cl read from file:
     ../../pseudo/Cl_PBE_ONCVPSP.upf
     MD5 check sum: 3907b9d6e2fcd34dd737a713d16902d8
     Pseudo is Norm-conserving + core correction, Zval =  7.0
     Generated using ONCVPSP code by D. R. Hamann
     Using radial grid of 1028 points,  6 beta functions with: 
                l(1) =   0
                l(2) =   0
                l(3) =   1
                l(4) =   1
                l(5) =   2
                l(6) =   2

     atomic species   valence    mass     pseudopotential
        Na             9.00    22.98980     Na( 1.00)
        Cl             7.00    35.45270     Cl( 1.00)

      8 Sym. Ops. (no inversion) found


                                    s                        frac. trans.

      isym =  1     identity                                     

 cryst.   s( 1) = (     1          0          0      )
                  (     0          1          0      )
                  (     0          0          1      )

 cart.    s( 1) = (  1.0000000  0.0000000  0.0000000 )
                  (  0.0000000  1.0000000  0.0000000 )
                  (  0.0000000  0.0000000  1.0000000 )


      isym =  2     180 deg rotation - cart. axis [0,0,1]        

 cryst.   s( 2) = (    -1          0          0      )
                  (     0         -1          0      )
                  (     0          0          1      )

 cart.    s( 2) = ( -1.0000000  0.0000000  0.0000000 )
                  (  0.0000000 -1.0000000  0.0000000 )
                  (  0.0000000  0.0000000  1.0000000 )


      isym =  3      90 deg rotation - cart. axis [0,0,-1]       

 cryst.   s( 3) = (     0         -1          0      )
                  (     1          0          0      )
                  (     0          0          1      )

 cart.    s( 3) = (  0.0000000  1.0000000  0.0000000 )
                  ( -1.0000000  0.0000000  0.0000000 )
                  (  0.0000000  0.0000000  1.0000000 )


      isym =  4      90 deg rotation - cart. axis [0,0,1]        

 cryst.   s( 4) = (     0          1          0      )
                  (    -1          0          0      )
                  (     0          0          1      )

 cart.    s( 4) = (  0.0000000 -1.0000000  0.0000000 )
                  (  1.0000000  0.0000000  0.0000000 )
                  (  0.0000000  0.0000000  1.0000000 )


      isym =  5     inv. 180 deg rotation - cart. axis [0,1,0]   

 cryst.   s( 5) = (     1          0          0      )
                  (     0         -1          0      )
                  (     0          0          1      )

 cart.    s( 5) = (  1.0000000  0.0000000  0.0000000 )
                  (  0.0000000 -1.0000000  0.0000000 )
                  (  0.0000000  0.0000000  1.0000000 )


      isym =  6     inv. 180 deg rotation - cart. axis [1,0,0]   

 cryst.   s( 6) = (    -1          0          0      )
                  (     0          1          0      )
                  (     0          0          1      )

 cart.    s( 6) = ( -1.0000000  0.0000000  0.0000000 )
                  (  0.0000000  1.0000000  0.0000000 )
                  (  0.0000000  0.0000000  1.0000000 )


      isym =  7     inv. 180 deg rotation - cart. axis [1,1,0]   

 cryst.   s( 7) = (     0         -1          0      )
                  (    -1          0          0      )
                  (     0          0          1      )

 cart.    s( 7) = (  0.0000000 -1.0000000  0.0000000 )
                  ( -1.0000000  0.0000000  0.0000000 )
                  (  0.0000000  0.0000000  1.0000000 )


      isym =  8     inv. 180 deg rotation - cart. axis [1,-1,0]  

 cryst.   s( 8) = (     0          1          0      )
                  (     1          0          0      )
                  (     0          0          1      )

 cart.    s( 8) = (  0.0000000  1.0000000  0.0000000 )
                  (  1.0000000  0.0000000  0.0000000 )
                  (  0.0000000  0.0000000  1.0000000 )


   Cartesian axes

     site n.     atom                  positions (alat units)
         1           Cl  tau(   1) = (   0.0000000   0.0000000   0.0000000  )
         2           Na  tau(   2) = (   0.5000000   0.5000000   0.0000000  )
         3           Na  tau(   3) = (   0.0000000   0.0000000   0.7071056  )
         4           Cl  tau(   4) = (   0.5000000   0.5000000   0.7071056  )

   Crystallographic axes

     site n.     atom                  positions (cryst. coord.)
         1           Cl  tau(   1) = (  0.0000000  0.0000000  0.0000000  )
         2           Na  tau(   2) = (  0.5000000  0.5000000  0.0000000  )
         3           Na  tau(   3) = (  0.0000000  0.0000000  0.2871890  )
         4           Cl  tau(   4) = (  0.5000000  0.5000000  0.2871890  )

     number of k points=    45  Marzari-Vanderbilt smearing, width (Ry)=  0.0100
                       cart. coord. in units 2pi/alat
        k(    1) = (   0.0000000   0.0000000   0.0000000), wk =   0.0069204
        k(    2) = (   0.0000000   0.0588235   0.0000000), wk =   0.0276817
        k(    3) = (   0.0000000   0.1176471   0.0000000), wk =   0.0276817
        k(    4) = (   0.0000000   0.1764706   0.0000000), wk =   0.0276817
        k(    5) = (   0.0000000   0.2352941   0.0000000), wk =   0.0276817
        k(    6) = (   0.0000000   0.2941176   0.0000000), wk =   0.0276817
        k(    7) = (   0.0000000   0.3529412   0.0000000), wk =   0.0276817
        k(    8) = (   0.0000000   0.4117647   0.0000000), wk =   0.0276817
        k(    9) = (   0.0000000   0.4705882   0.0000000), wk =   0.0276817
        k(   10) = (   0.0588235   0.0588235   0.0000000), wk =   0.0276817
        k(   11) = (   0.0588235   0.1176471   0.0000000), wk =   0.0553633
        k(   12) = (   0.0588235   0.1764706   0.0000000), wk =   0.0553633
        k(   13) = (   0.0588235   0.2352941   0.0000000), wk =   0.0553633
        k(   14) = (   0.0588235   0.2941176   0.0000000), wk =   0.0553633
        k(   15) = (   0.0588235   0.3529412   0.0000000), wk =   0.0553633
        k(   16) = (   0.0588235   0.4117647   0.0000000), wk =   0.0553633
        k(   17) = (   0.0588235   0.4705882   0.0000000), wk =   0.0553633
        k(   18) = (   0.1176471   0.1176471   0.0000000), wk =   0.0276817
        k(   19) = (   0.1176471   0.1764706   0.0000000), wk =   0.0553633
        k(   20) = (   0.1176471   0.2352941   0.0000000), wk =   0.0553633
        k(   21) = (   0.1176471   0.2941176   0.0000000), wk =   0.0553633
        k(   22) = (   0.1176471   0.3529412   0.0000000), wk =   0.0553633
        k(   23) = (   0.1176471   0.4117647   0.0000000), wk =   0.0553633
        k(   24) = (   0.1176471   0.4705882   0.0000000), wk =   0.0553633
        k(   25) = (   0.1764706   0.1764706   0.0000000), wk =   0.0276817
        k(   26) = (   0.1764706   0.2352941   0.0000000), wk =   0.0553633
        k(   27) = (   0.1764706   0.2941176   0.0000000), wk =   0.0553633
        k(   28) = (   0.1764706   0.3529412   0.0000000), wk =   0.0553633
        k(   29) = (   0.1764706   0.4117647   0.0000000), wk =   0.0553633
        k(   30) = (   0.1764706   0.4705882   0.0000000), wk =   0.0553633
        k(   31) = (   0.2352941   0.2352941   0.0000000), wk =   0.0276817
        k(   32) = (   0.2352941   0.2941176   0.0000000), wk =   0.0553633
        k(   33) = (   0.2352941   0.3529412   0.0000000), wk =   0.0553633
        k(   34) = (   0.2352941   0.4117647   0.0000000), wk =   0.0553633
        k(   35) = (   0.2352941   0.4705882   0.0000000), wk =   0.0553633
        k(   36) = (   0.2941176   0.2941176   0.0000000), wk =   0.0276817
        k(   37) = (   0.2941176   0.3529412   0.0000000), wk =   0.0553633
        k(   38) = (   0.2941176   0.4117647   0.0000000), wk =   0.0553633
        k(   39) = (   0.2941176   0.4705882   0.0000000), wk =   0.0553633
        k(   40) = (   0.3529412   0.3529412   0.0000000), wk =   0.0276817
        k(   41) = (   0.3529412   0.4117647   0.0000000), wk =   0.0553633
        k(   42) = (   0.3529412   0.4705882   0.0000000), wk =   0.0553633
        k(   43) = (   0.4117647   0.4117647   0.0000000), wk =   0.0276817
        k(   44) = (   0.4117647   0.4705882   0.0000000), wk =   0.0553633
        k(   45) = (   0.4705882   0.4705882   0.0000000), wk =   0.0276817

                       cryst. coord.
        k(    1) = (   0.0000000   0.0000000   0.0000000), wk =   0.0069204
        k(    2) = (   0.0000000   0.0588235   0.0000000), wk =   0.0276817
        k(    3) = (   0.0000000   0.1176471   0.0000000), wk =   0.0276817
        k(    4) = (   0.0000000   0.1764706   0.0000000), wk =   0.0276817
        k(    5) = (   0.0000000   0.2352941   0.0000000), wk =   0.0276817
        k(    6) = (   0.0000000   0.2941176   0.0000000), wk =   0.0276817
        k(    7) = (   0.0000000   0.3529412   0.0000000), wk =   0.0276817
        k(    8) = (   0.0000000   0.4117647   0.0000000), wk =   0.0276817
        k(    9) = (   0.0000000   0.4705882   0.0000000), wk =   0.0276817
        k(   10) = (   0.0588235   0.0588235   0.0000000), wk =   0.0276817
        k(   11) = (   0.0588235   0.1176471   0.0000000), wk =   0.0553633
        k(   12) = (   0.0588235   0.1764706   0.0000000), wk =   0.0553633
        k(   13) = (   0.0588235   0.2352941   0.0000000), wk =   0.0553633
        k(   14) = (   0.0588235   0.2941176   0.0000000), wk =   0.0553633
        k(   15) = (   0.0588235   0.3529412   0.0000000), wk =   0.0553633
        k(   16) = (   0.0588235   0.4117647   0.0000000), wk =   0.0553633
        k(   17) = (   0.0588235   0.4705882   0.0000000), wk =   0.0553633
        k(   18) = (   0.1176471   0.1176471   0.0000000), wk =   0.0276817
        k(   19) = (   0.1176471   0.1764706   0.0000000), wk =   0.0553633
        k(   20) = (   0.1176471   0.2352941   0.0000000), wk =   0.0553633
        k(   21) = (   0.1176471   0.2941176   0.0000000), wk =   0.0553633
        k(   22) = (   0.1176471   0.3529412   0.0000000), wk =   0.0553633
        k(   23) = (   0.1176471   0.4117647   0.0000000), wk =   0.0553633
        k(   24) = (   0.1176471   0.4705882   0.0000000), wk =   0.0553633
        k(   25) = (   0.1764706   0.1764706   0.0000000), wk =   0.0276817
        k(   26) = (   0.1764706   0.2352941   0.0000000), wk =   0.0553633
        k(   27) = (   0.1764706   0.2941176   0.0000000), wk =   0.0553633
        k(   28) = (   0.1764706   0.3529412   0.0000000), wk =   0.0553633
        k(   29) = (   0.1764706   0.4117647   0.0000000), wk =   0.0553633
        k(   30) = (   0.1764706   0.4705882   0.0000000), wk =   0.0553633
        k(   31) = (   0.2352941   0.2352941   0.0000000), wk =   0.0276817
        k(   32) = (   0.2352941   0.2941176   0.0000000), wk =   0.0553633
        k(   33) = (   0.2352941   0.3529412   0.0000000), wk =   0.0553633
        k(   34) = (   0.2352941   0.4117647   0.0000000), wk =   0.0553633
        k(   35) = (   0.2352941   0.4705882   0.0000000), wk =   0.0553633
        k(   36) = (   0.2941176   0.2941176   0.0000000), wk =   0.0276817
        k(   37) = (   0.2941176   0.3529412   0.0000000), wk =   0.0553633
        k(   38) = (   0.2941176   0.4117647   0.0000000), wk =   0.0553633
        k(   39) = (   0.2941176   0.4705882   0.0000000), wk =   0.0553633
        k(   40) = (   0.3529412   0.3529412   0.0000000), wk =   0.0276817
        k(   41) = (   0.3529412   0.4117647   0.0000000), wk =   0.0553633
        k(   42) = (   0.3529412   0.4705882   0.0000000), wk =   0.0553633
        k(   43) = (   0.4117647   0.4117647   0.0000000), wk =   0.0276817
        k(   44) = (   0.4117647   0.4705882   0.0000000), wk =   0.0553633
        k(   45) = (   0.4705882   0.4705882   0.0000000), wk =   0.0276817

     Dense  grid:    36047 G-vectors     FFT dimensions: (  32,  32,  75)

     Dynamical RAM for                 wfc:       1.37 MB

     Dynamical RAM for     wfc (w. buffer):       1.37 MB

     Dynamical RAM for           str. fact:       1.10 MB

     Dynamical RAM for           local pot:       0.00 MB

     Dynamical RAM for          nlocal pot:       3.57 MB

     Dynamical RAM for                qrad:       2.44 MB

     Dynamical RAM for          rho,v,vnew:       3.41 MB

     Dynamical RAM for           G-vectors:       2.34 MB

     Dynamical RAM for          h,s,v(r/c):       0.29 MB

     Dynamical RAM for          <psi|beta>:       0.02 MB

     Dynamical RAM for                 psi:       5.50 MB

     Dynamical RAM for                hpsi:       5.50 MB

     Dynamical RAM for      wfcinit/wfcrot:       2.76 MB

     Estimated static dynamical RAM per process >      18.81 MB

     Estimated max dynamical RAM per process >      30.12 MB

     The potential is recalculated from file :
     /tmp/nacl.save/charge-density.dat

     Starting wfcs are   18 randomized atomic wfcs +    2 random wfcs

     Band Structure Calculation
     Davidson diagonalization with overlap

     Computing kpt #:     1
     total cpu time spent up to now is        1.7 secs

     Computing kpt #:     2
     total cpu time spent up to now is        2.7 secs

     Computing kpt #:     3
     total cpu time spent up to now is        3.7 secs

     Computing kpt #:     4
     total cpu time spent up to now is        4.8 secs

     Computing kpt #:     5
     total cpu time spent up to now is        5.9 secs

     Computing kpt #:     6
     total cpu time spent up to now is        6.7 secs

     Computing kpt #:     7
     total cpu time spent up to now is        7.5 secs

     Computing kpt #:     8
     total cpu time spent up to now is        8.4 secs

     Computing kpt #:     9
     total cpu time spent up to now is        9.2 secs

     Computing kpt #:    10
     total cpu time spent up to now is       10.2 secs

     Computing kpt #:    11
     total cpu time spent up to now is       11.1 secs

     Computing kpt #:    12
     total cpu time spent up to now is       12.1 secs

     Computing kpt #:    13
     total cpu time spent up to now is       13.1 secs

     Computing kpt #:    14
     total cpu time spent up to now is       14.0 secs

     Computing kpt #:    15
     total cpu time spent up to now is       14.8 secs

     Computing kpt #:    16
     total cpu time spent up to now is       15.6 secs

     Computing kpt #:    17
     total cpu time spent up to now is       16.4 secs

     Computing kpt #:    18
     total cpu time spent up to now is       17.4 secs

     Computing kpt #:    19
     total cpu time spent up to now is       18.3 secs

     Computing kpt #:    20
     total cpu time spent up to now is       19.3 secs

     Computing kpt #:    21
     total cpu time spent up to now is       20.1 secs

     Computing kpt #:    22
     total cpu time spent up to now is       21.0 secs

     Computing kpt #:    23
     total cpu time spent up to now is       21.8 secs

     Computing kpt #:    24
     total cpu time spent up to now is       22.6 secs

     Computing kpt #:    25
     total cpu time spent up to now is       23.6 secs

     Computing kpt #:    26
     total cpu time spent up to now is       24.6 secs

     Computing kpt #:    27
     total cpu time spent up to now is       25.6 secs

     Computing kpt #:    28
     total cpu time spent up to now is       26.5 secs

     Computing kpt #:    29
     total cpu time spent up to now is       27.3 secs

     Computing kpt #:    30
     total cpu time spent up to now is       28.2 secs

     Computing kpt #:    31
     total cpu time spent up to now is       29.2 secs

     Computing kpt #:    32
     total cpu time spent up to now is       30.2 secs

     Computing kpt #:    33
     total cpu time spent up to now is       31.2 secs

     Computing kpt #:    34
     total cpu time spent up to now is       32.1 secs

     Computing kpt #:    35
     total cpu time spent up to now is       32.9 secs

     Computing kpt #:    36
     total cpu time spent up to now is       33.9 secs

     Computing kpt #:    37
     total cpu time spent up to now is       34.9 secs

     Computing kpt #:    38
     total cpu time spent up to now is       35.8 secs

     Computing kpt #:    39
     total cpu time spent up to now is       36.7 secs

     Computing kpt #:    40
     total cpu time spent up to now is       37.7 secs

     Computing kpt #:    41
     total cpu time spent up to now is       38.7 secs

     Computing kpt #:    42
     total cpu time spent up to now is       39.6 secs

     Computing kpt #:    43
     total cpu time spent up to now is       40.5 secs

     Computing kpt #:    44
     total cpu time spent up to now is       41.4 secs

     Computing kpt #:    45
     total cpu time spent up to now is       42.2 secs

     ethr =  3.12E-09,  avg # of iterations = 20.4

     total cpu time spent up to now is       42.2 secs

     End of band structure calculation

          k = 0.0000 0.0000 0.0000 (  4517 PWs)   bands (ev):

   -54.0625 -54.0610 -23.6066 -23.5989 -23.5989 -23.5700 -23.5169 -23.5169
   -14.4875 -14.2887  -3.1552  -2.4152  -2.4152  -2.3505  -2.1138  -2.1138
     2.4640   4.0898   4.9167   6.4789

     occupation numbers 
     1.0000   1.0000   1.0000   1.0000   1.0000   1.0000   1.0000   1.0000
     1.0000   1.0000   1.0000   1.0000   1.0000   1.0000   1.0000   1.0000
     0.0000   0.0000   0.0000   0.0000

          k = 0.0000 0.0588 0.0000 (  4521 PWs)   bands (ev):

   -54.0626 -54.0610 -23.6059 -23.6041 -23.5715 -23.5634 -23.5522 -23.5478
   -14.4814 -14.2858  -3.1499  -2.5152  -2.4104  -2.2919  -2.1620  -2.1147
     2.5237   4.1308   4.9602   6.5263

     occupation numbers 
     1.0000   1.0000   1.0000   1.0000   1.0000   1.0000   1.0000   1.0000
     1.0000   1.0000   1.0000   1.0000   1.0000   1.0000   1.0000   1.0000
     0.0000   0.0000   0.0000   0.0000

          k = 0.0000 0.1176 0.0000 (  4525 PWs)   bands (ev):

   -54.0625 -54.0610 -23.6193 -23.6096 -23.5896 -23.5795 -23.5452 -23.5447
   -14.4640 -14.2777  -3.1365  -2.6844  -2.3992  -2.2920  -2.2438  -2.1176
     2.6915   4.2434   5.0839   6.6508

     occupation numbers 
     1.0000   1.0000   1.0000   1.0000   1.0000   1.0000   1.0000   1.0000
     1.0000   1.0000   1.0000   1.0000   1.0000   1.0000   1.0000   1.0000
     0.0000   0.0000   0.0000   0.0000

          k = 0.0000 0.1765 0.0000 (  4507 PWs)   bands (ev):

   -54.0625 -54.0610 -23.5987 -23.5788 -23.5720 -23.5489 -23.5221 -23.5182
   -14.4368 -14.2657  -3.1305  -2.8843  -2.4553  -2.3809  -2.2194  -2.1238
     2.9427   4.4018   5.2689   6.8084

     occupation numbers 
     1.0000   1.0000   1.0000   1.0000   1.0000   1.0000   1.0000   1.0000
     1.0000   1.0000   1.0000   1.0000   1.0000   1.0000   1.0000   1.0000
     0.0000   0.0000   0.0000   0.0000

          k = 0.0000 0.2353 0.0000 (  4523 PWs)   bands (ev):

   -54.0625 -54.0610 -23.6454 -23.6435 -23.5901 -23.5640 -23.5160 -23.5151
   -14.4025 -14.2524  -3.1657  -3.0928  -2.5844  -2.3572  -2.2150  -2.1330
     3.2537   4.5798   5.4808   6.9432

     occupation numbers 
     1.0000   1.0000   1.0000   1.0000   1.0000   1.0000   1.0000   1.0000
     1.0000   1.0000   1.0000   1.0000   1.0000   1.0000   1.0000   1.0000
     0.0000   0.0000   0.0000   0.0000

          k = 0.0000 0.2941 0.0000 (  4517 PWs)   bands (ev):

   -54.0624 -54.0609 -23.6501 -23.6117 -23.5741 -23.5294 -23.5285 -23.5167
   -14.3643 -14.2410  -3.2876  -3.2686  -2.6245  -2.3292  -2.2286  -2.1457
     3.6112   4.7612   5.6680   6.9102

     occupation numbers 
     1.0000   1.0000   1.0000   1.0000   1.0000   1.0000   1.0000   1.0000
     1.0000   1.0000   1.0000   1.0000   1.0000   1.0000   1.0000   1.0000
     0.0000   0.0000   0.0000   0.0000

          k = 0.0000 0.3529 0.0000 (  4511 PWs)   bands (ev):

   -54.0624 -54.0609 -23.6306 -23.5799 -23.5786 -23.5733 -23.5064 -23.4773
   -14.3256 -14.2337  -3.4469  -3.4048  -2.5908  -2.2989  -2.2598  -2.1627
     4.0076   4.9414   5.7630   6.5457

     occupation numbers 
     1.0000   1.0000   1.0000   1.0000   1.0000   1.0000   1.0000   1.0000
     1.0000   1.0000   1.0000   1.0000   1.0000   1.0000   1.0000   1.0000
     0.0000   0.0000   0.0000   0.0000

          k = 0.0000 0.4118 0.0000 (  4493 PWs)   bands (ev):

   -54.0623 -54.0608 -23.5915 -23.5902 -23.5655 -23.5340 -23.4850 -23.4246
   -14.2908 -14.2339  -3.5563  -3.5229  -2.5231  -2.3079  -2.2679  -2.1839
     4.4376   5.1109   5.7266   6.0513

     occupation numbers 
     1.0000   1.0000   1.0000   1.0000   1.0000   1.0000   1.0000   1.0000
     1.0000   1.0000   1.0000   1.0000   1.0000   1.0000   1.0000   1.0000
     0.0000   0.0000   0.0000   0.0000

          k = 0.0000 0.4706 0.0000 (  4498 PWs)   bands (ev):

   -54.0623 -54.0608 -23.5944 -23.5919 -23.5393 -23.5367 -23.4918 -23.4760
   -14.2625 -14.2436  -3.6069  -3.5945  -2.4459  -2.3716  -2.2373  -2.2090
     4.8826   5.1883   5.6116   5.6304

     occupation numbers 
     1.0000   1.0000   1.0000   1.0000   1.0000   1.0000   1.0000   1.0000
     1.0000   1.0000   1.0000   1.0000   1.0000   1.0000   1.0000   1.0000
     0.0000   0.0000   0.0000   0.0000

          k = 0.0588 0.0588 0.0000 (  4519 PWs)   bands (ev):

   -54.0625 -54.0610 -23.6048 -23.5862 -23.5815 -23.5742 -23.5463 -23.5354
   -14.4756 -14.2829  -3.1441  -2.5461  -2.4543  -2.2555  -2.1827  -2.1422
     2.5819   4.1727   5.0040   6.5747

     occupation numbers 
     1.0000   1.0000   1.0000   1.0000   1.0000   1.0000   1.0000   1.0000
     1.0000   1.0000   1.0000   1.0000   1.0000   1.0000   1.0000   1.0000
     0.0000   0.0000   0.0000   0.0000

          k = 0.0588 0.1176 0.0000 (  4516 PWs)   bands (ev):

   -54.0625 -54.0610 -23.5983 -23.5924 -23.5775 -23.5696 -23.5580 -23.5160
   -14.4583 -14.2748  -3.1308  -2.6854  -2.4625  -2.2999  -2.2156  -2.1550
     2.7456   4.2862   5.1288   6.7025

     occupation numbers 
     1.0000   1.0000   1.0000   1.0000   1.0000   1.0000   1.0000   1.0000
     1.0000   1.0000   1.0000   1.0000   1.0000   1.0000   1.0000   1.0000
     0.0000   0.0000   0.0000   0.0000

          k = 0.0588 0.1765 0.0000 (  4510 PWs)   bands (ev):

   -54.0625 -54.0609 -23.5974 -23.5929 -23.5727 -23.5711 -23.5277 -23.5035
   -14.4315 -14.2632  -3.1255  -2.8779  -2.4580  -2.4457  -2.1951  -2.1612
     2.9913   4.4457   5.3153   6.8640

     occupation numbers 
     1.0000   1.0000   1.0000   1.0000   1.0000   1.0000   1.0000   1.0000
     1.0000   1.0000   1.0000   1.0000   1.0000   1.0000   1.0000   1.0000
     0.0000   0.0000   0.0000   0.0000

          k = 0.0588 0.2353 0.0000 (  4515 PWs)   bands (ev):

   -54.0625 -54.0609 -23.6277 -23.6212 -23.5812 -23.5565 -23.5146 -23.5025
   -14.3977 -14.2502  -3.1610  -3.0831  -2.5831  -2.4199  -2.1928  -2.1692
     3.2968   4.6251   5.5295   7.0043

     occupation numbers 
     1.0000   1.0000   1.0000   1.0000   1.0000   1.0000   1.0000   1.0000
     1.0000   1.0000   1.0000   1.0000   1.0000   1.0000   1.0000   1.0000
     0.0000   0.0000   0.0000   0.0000

          k = 0.0588 0.2941 0.0000 (  4517 PWs)   bands (ev):

   -54.0624 -54.0609 -23.6618 -23.6000 -23.5747 -23.5446 -23.5257 -23.5055
   -14.3601 -14.2388  -3.2761  -3.2629  -2.6210  -2.3901  -2.2071  -2.1809
     3.6485   4.8072   5.7199   6.9664

     occupation numbers 
     1.0000   1.0000   1.0000   1.0000   1.0000   1.0000   1.0000   1.0000
     1.0000   1.0000   1.0000   1.0000   1.0000   1.0000   1.0000   1.0000
     0.0000   0.0000   0.0000   0.0000

          k = 0.0588 0.3529 0.0000 (  4502 PWs)   bands (ev):

   -54.0623 -54.0608 -23.6350 -23.5792 -23.5678 -23.5513 -23.4881 -23.4546
   -14.3224 -14.2319  -3.4342  -3.3970  -2.5869  -2.3602  -2.2355  -2.1968
     4.0391   4.9874   5.8189   6.5865

     occupation numbers 
     1.0000   1.0000   1.0000   1.0000   1.0000   1.0000   1.0000   1.0000
     1.0000   1.0000   1.0000   1.0000   1.0000   1.0000   1.0000   1.0000
     0.0000   0.0000   0.0000   0.0000

          k = 0.0588 0.4118 0.0000 (  4493 PWs)   bands (ev):

   -54.0623 -54.0608 -23.5902 -23.5763 -23.5633 -23.5380 -23.4871 -23.4376
   -14.2880 -14.2321  -3.5436  -3.5133  -2.5202  -2.3439  -2.2668  -2.2172
     4.4628   5.1502   5.7856   6.0913

     occupation numbers 
     1.0000   1.0000   1.0000   1.0000   1.0000   1.0000   1.0000   1.0000
     1.0000   1.0000   1.0000   1.0000   1.0000   1.0000   1.0000   1.0000
     0.0000   0.0000   0.0000   0.0000

          k = 0.0588 0.4706 0.0000 (  4493 PWs)   bands (ev):

   -54.0623 -54.0608 -23.5734 -23.5616 -23.5578 -23.5464 -23.4806 -23.4698
   -14.2602 -14.2413  -3.5945  -3.5833  -2.4451  -2.3773  -2.2644  -2.2410
     4.9001   5.2077   5.6756   5.6914

     occupation numbers 
     1.0000   1.0000   1.0000   1.0000   1.0000   1.0000   1.0000   1.0000
     1.0000   1.0000   1.0000   1.0000   1.0000   1.0000   1.0000   1.0000
     0.0000   0.0000   0.0000   0.0000

          k = 0.1176 0.1176 0.0000 (  4507 PWs)   bands (ev):

   -54.0625 -54.0609 -23.6048 -23.5759 -23.5637 -23.5587 -23.5203 -23.5101
   -14.4419 -14.2672  -3.1188  -2.7179  -2.5655  -2.3489  -2.2237  -2.1820
     2.8988   4.4025   5.2567   6.8418

     occupation numbers 
     1.0000   1.0000   1.0000   1.0000   1.0000   1.0000   1.0000   1.0000
     1.0000   1.0000   1.0000   1.0000   1.0000   1.0000   1.0000   1.0000
     0.0000   0.0000   0.0000   0.0000

          k = 0.1176 0.1765 0.0000 (  4515 PWs)   bands (ev):

   -54.0625 -54.0609 -23.6259 -23.6077 -23.5797 -23.5535 -23.5207 -23.5162
   -14.4164 -14.2563  -3.1146  -2.8624  -2.5855  -2.4710  -2.2531  -2.1663
     3.1297   4.5659   5.4469   7.0180

     occupation numbers 
     1.0000   1.0000   1.0000   1.0000   1.0000   1.0000   1.0000   1.0000
     1.0000   1.0000   1.0000   1.0000   1.0000   1.0000   1.0000   1.0000
     0.0000   0.0000   0.0000   0.0000

          k = 0.1176 0.2353 0.0000 (  4516 PWs)   bands (ev):

   -54.0624 -54.0609 -23.6269 -23.6101 -23.5708 -23.5423 -23.5317 -23.5258
   -14.3842 -14.2440  -3.1505  -3.0554  -2.5801  -2.5596  -2.2644  -2.1682
     3.4190   4.7499   5.6660   7.1744

     occupation numbers 
     1.0000   1.0000   1.0000   1.0000   1.0000   1.0000   1.0000   1.0000
     1.0000   1.0000   1.0000   1.0000   1.0000   1.0000   1.0000   1.0000
     0.0000   0.0000   0.0000   0.0000

          k = 0.1176 0.2941 0.0000 (  4525 PWs)   bands (ev):

   -54.0624 -54.0609 -23.6333 -23.6214 -23.5904 -23.5608 -23.5430 -23.5313
   -14.3487 -14.2335  -3.2485  -3.2424  -2.6116  -2.5221  -2.2755  -2.1862
     3.7537   4.9359   5.8632   7.1125

     occupation numbers 
     1.0000   1.0000   1.0000   1.0000   1.0000   1.0000   1.0000   1.0000
     1.0000   1.0000   1.0000   1.0000   1.0000   1.0000   1.0000   1.0000
     0.0000   0.0000   0.0000   0.0000

          k = 0.1176 0.3529 0.0000 (  4508 PWs)   bands (ev):

   -54.0623 -54.0608 -23.6271 -23.5973 -23.5891 -23.5312 -23.5273 -23.4608
   -14.3127 -14.2268  -3.3980  -3.3760  -2.5768  -2.4804  -2.2901  -2.2198
     4.1274   5.1119   5.9728   6.6923

     occupation numbers 
     1.0000   1.0000   1.0000   1.0000   1.0000   1.0000   1.0000   1.0000
     1.0000   1.0000   1.0000   1.0000   1.0000   1.0000   1.0000   1.0000
     0.0000   0.0000   0.0000   0.0000

          k = 0.1176 0.4118 0.0000 (  4497 PWs)   bands (ev):

   -54.0623 -54.0608 -23.5953 -23.5951 -23.5456 -23.5431 -23.4875 -23.4645
   -14.2797 -14.2270  -3.5070  -3.4859  -2.5125  -2.4419  -2.3086  -2.2663
     4.5329   5.2555   5.9532   6.2073

     occupation numbers 
     1.0000   1.0000   1.0000   1.0000   1.0000   1.0000   1.0000   1.0000
     1.0000   1.0000   1.0000   1.0000   1.0000   1.0000   1.0000   1.0000
     0.0000   0.0000   0.0000   0.0000

          k = 0.1176 0.4706 0.0000 (  4487 PWs)   bands (ev):

   -54.0622 -54.0607 -23.5623 -23.5529 -23.5481 -23.5343 -23.4717 -23.4697
   -14.2534 -14.2356  -3.5590  -3.5510  -2.4467  -2.4186  -2.3259  -2.3140
     4.9481   5.2580   5.8598   5.8677

     occupation numbers 
     1.0000   1.0000   1.0000   1.0000   1.0000   1.0000   1.0000   1.0000
     1.0000   1.0000   1.0000   1.0000   1.0000   1.0000   1.0000   1.0000
     0.0000   0.0000   0.0000   0.0000

          k = 0.1765 0.1765 0.0000 (  4523 PWs)   bands (ev):

   -54.0625 -54.0609 -23.6394 -23.6156 -23.5868 -23.5854 -23.5223 -23.5175
   -14.3929 -14.2462  -3.1120  -2.8714  -2.7261  -2.5141  -2.3435  -2.1546
     3.3400   4.7365   5.6421   7.2198

     occupation numbers 
     1.0000   1.0000   1.0000   1.0000   1.0000   1.0000   1.0000   1.0000
     1.0000   1.0000   1.0000   1.0000   1.0000   1.0000   1.0000   1.0000
     0.0000   0.0000   0.0000   0.0000

          k = 0.1765 0.2353 0.0000 (  4519 PWs)   bands (ev):

   -54.0624 -54.0609 -23.6353 -23.6093 -23.5716 -23.5509 -23.5325 -23.5297
   -14.3633 -14.2350  -3.1452  -3.0118  -2.7367  -2.5784  -2.3841  -2.1593
     3.6053   4.9284   5.8642   7.3710

     occupation numbers 
     1.0000   1.0000   1.0000   1.0000   1.0000   1.0000   1.0000   1.0000
     1.0000   1.0000   1.0000   1.0000   1.0000   1.0000   1.0000   1.0000
     0.0000   0.0000   0.0000   0.0000

          k = 0.1765 0.2941 0.0000 (  4512 PWs)   bands (ev):

   -54.0624 -54.0608 -23.6280 -23.6019 -23.5825 -23.5386 -23.5238 -23.4945
   -14.3304 -14.2250  -3.2332  -3.1888  -2.6912  -2.5969  -2.4023  -2.1800
     3.9142   5.1196   6.0672   7.2283

     occupation numbers 
     1.0000   1.0000   1.0000   1.0000   1.0000   1.0000   1.0000   1.0000
     1.0000   1.0000   1.0000   1.0000   1.0000   1.0000   1.0000   1.0000
     0.0000   0.0000   0.0000   0.0000

          k = 0.1765 0.3529 0.0000 (  4512 PWs)   bands (ev):

   -54.0623 -54.0608 -23.6448 -23.5898 -23.5690 -23.5509 -23.5199 -23.4966
   -14.2972 -14.2190  -3.3475  -3.3419  -2.6368  -2.5615  -2.4185  -2.2166
     4.2600   5.2870   6.1925   6.8105

     occupation numbers 
     1.0000   1.0000   1.0000   1.0000   1.0000   1.0000   1.0000   1.0000
     1.0000   1.0000   1.0000   1.0000   1.0000   1.0000   1.0000   1.0000
     0.0000   0.0000   0.0000   0.0000

          k = 0.1765 0.4118 0.0000 (  4490 PWs)   bands (ev):

   -54.0622 -54.0607 -23.6020 -23.5570 -23.5430 -23.5386 -23.4839 -23.4556
   -14.2671 -14.2191  -3.4504  -3.4459  -2.5815  -2.5039  -2.4338  -2.2682
     4.6345   5.3924   6.1999   6.3833

     occupation numbers 
     1.0000   1.0000   1.0000   1.0000   1.0000   1.0000   1.0000   1.0000
     1.0000   1.0000   1.0000   1.0000   1.0000   1.0000   1.0000   1.0000
     0.0000   0.0000   0.0000   0.0000

          k = 0.1765 0.4706 0.0000 (  4487 PWs)   bands (ev):

   -54.0622 -54.0607 -23.5730 -23.5586 -23.5417 -23.5216 -23.4850 -23.4662
   -14.2432 -14.2272  -3.5053  -3.5028  -2.5321  -2.4942  -2.4009  -2.3321
     5.0149   5.3195   6.1352   6.1355

     occupation numbers 
     1.0000   1.0000   1.0000   1.0000   1.0000   1.0000   1.0000   1.0000
     1.0000   1.0000   1.0000   1.0000   1.0000   1.0000   1.0000   1.0000
     0.0000   0.0000   0.0000   0.0000

          k = 0.2353 0.2353 0.0000 (  4525 PWs)   bands (ev):

   -54.0624 -54.0609 -23.6323 -23.5997 -23.5825 -23.5695 -23.5674 -23.5314
   -14.3368 -14.2250  -3.1674  -2.9762  -2.9053  -2.5822  -2.4786  -2.1659
     3.8411   5.1307   6.0838   7.3393

     occupation numbers 
     1.0000   1.0000   1.0000   1.0000   1.0000   1.0000   1.0000   1.0000
     1.0000   1.0000   1.0000   1.0000   1.0000   1.0000   1.0000   1.0000
     0.0000   0.0000   0.0000   0.0000

          k = 0.2353 0.2941 0.0000 (  4507 PWs)   bands (ev):

   -54.0623 -54.0608 -23.6383 -23.5987 -23.5744 -23.5333 -23.5095 -23.4797
   -14.3075 -14.2155  -3.2324  -3.1206  -2.8740  -2.5792  -2.5242  -2.1873
     4.1161   5.3252   6.2790   7.1573

     occupation numbers 
     1.0000   1.0000   1.0000   1.0000   1.0000   1.0000   1.0000   1.0000
     1.0000   1.0000   1.0000   1.0000   1.0000   1.0000   1.0000   1.0000
     0.0000   0.0000   0.0000   0.0000

          k = 0.2353 0.3529 0.0000 (  4503 PWs)   bands (ev):

   -54.0623 -54.0608 -23.6291 -23.5756 -23.5617 -23.5212 -23.5076 -23.5060
   -14.2782 -14.2101  -3.3231  -3.2727  -2.8046  -2.5523  -2.5414  -2.2237
     4.4229   5.4745   6.4113   6.8586

     occupation numbers 
     1.0000   1.0000   1.0000   1.0000   1.0000   1.0000   1.0000   1.0000
     1.0000   1.0000   1.0000   1.0000   1.0000   1.0000   1.0000   1.0000
     0.0000   0.0000   0.0000   0.0000

          k = 0.2353 0.4118 0.0000 (  4494 PWs)   bands (ev):

   -54.0622 -54.0607 -23.6181 -23.5737 -23.5532 -23.5429 -23.4763 -23.4586
   -14.2517 -14.2099  -3.4038  -3.3830  -2.7348  -2.5787  -2.4825  -2.2749
     4.7521   5.5141   6.4606   6.5811

     occupation numbers 
     1.0000   1.0000   1.0000   1.0000   1.0000   1.0000   1.0000   1.0000
     1.0000   1.0000   1.0000   1.0000   1.0000   1.0000   1.0000   1.0000
     0.0000   0.0000   0.0000   0.0000

          k = 0.2353 0.4706 0.0000 (  4498 PWs)   bands (ev):

   -54.0622 -54.0607 -23.6063 -23.5762 -23.5426 -23.5372 -23.4947 -23.4937
   -14.2310 -14.2168  -3.4481  -3.4423  -2.6716  -2.6189  -2.4104  -2.3385
     5.0847   5.3707   6.4480   6.4513

     occupation numbers 
     1.0000   1.0000   1.0000   1.0000   1.0000   1.0000   1.0000   1.0000
     1.0000   1.0000   1.0000   1.0000   1.0000   1.0000   1.0000   1.0000
     0.0000   0.0000   0.0000   0.0000

          k = 0.2941 0.2941 0.0000 (  4511 PWs)   bands (ev):

   -54.0623 -54.0608 -23.6198 -23.5939 -23.5793 -23.5428 -23.5296 -23.5078
   -14.2823 -14.2072  -3.2618  -3.0770  -3.0153  -2.6114  -2.5545  -2.2077
     4.3486   5.5115   6.4441   6.9902

     occupation numbers 
     1.0000   1.0000   1.0000   1.0000   1.0000   1.0000   1.0000   1.0000
     1.0000   1.0000   1.0000   1.0000   1.0000   1.0000   1.0000   1.0000
     0.0000   0.0000   0.0000   0.0000

          k = 0.2941 0.3529 0.0000 (  4497 PWs)   bands (ev):

   -54.0622 -54.0607 -23.6116 -23.5630 -23.5558 -23.5334 -23.5126 -23.4774
   -14.2573 -14.2017  -3.3174  -3.2112  -2.9485  -2.6577  -2.5214  -2.2417
     4.6036   5.6153   6.5410   6.8339

     occupation numbers 
     1.0000   1.0000   1.0000   1.0000   1.0000   1.0000   1.0000   1.0000
     1.0000   1.0000   1.0000   1.0000   1.0000   1.0000   1.0000   1.0000
     0.0000   0.0000   0.0000   0.0000

          k = 0.2941 0.4118 0.0000 (  4495 PWs)   bands (ev):

   -54.0622 -54.0607 -23.6127 -23.5790 -23.5624 -23.5256 -23.4901 -23.4652
   -14.2352 -14.2010  -3.3727  -3.3217  -2.8671  -2.6920  -2.4725  -2.2893
     4.8713   5.5682   6.5861   6.7317

     occupation numbers 
     1.0000   1.0000   1.0000   1.0000   1.0000   1.0000   1.0000   1.0000
     1.0000   1.0000   1.0000   1.0000   1.0000   1.0000   1.0000   1.0000
     0.0000   0.0000   0.0000   0.0000

          k = 0.2941 0.4706 0.0000 (  4481 PWs)   bands (ev):

   -54.0622 -54.0607 -23.5828 -23.5692 -23.5395 -23.5012 -23.4628 -23.4599
   -14.2175 -14.2058  -3.4006  -3.3856  -2.7938  -2.7351  -2.4114  -2.3475
     5.1398   5.3869   6.6157   6.6596

     occupation numbers 
     1.0000   1.0000   1.0000   1.0000   1.0000   1.0000   1.0000   1.0000
     1.0000   1.0000   1.0000   1.0000   1.0000   1.0000   1.0000   1.0000
     0.0000   0.0000   0.0000   0.0000

          k = 0.3529 0.3529 0.0000 (  4505 PWs)   bands (ev):

   -54.0622 -54.0607 -23.6304 -23.5904 -23.5821 -23.5260 -23.5144 -23.4806
   -14.2370 -14.1957  -3.3365  -3.2223  -2.9915  -2.7247  -2.4960  -2.2720
     4.7918   5.6339   6.5597   6.8012

     occupation numbers 
     1.0000   1.0000   1.0000   1.0000   1.0000   1.0000   1.0000   1.0000
     1.0000   1.0000   1.0000   1.0000   1.0000   1.0000   1.0000   1.0000
     0.0000   0.0000   0.0000   0.0000

          k = 0.3529 0.4118 0.0000 (  4497 PWs)   bands (ev):

   -54.0622 -54.0607 -23.6145 -23.5762 -23.5575 -23.5277 -23.4965 -23.4836
   -14.2191 -14.1937  -3.3647  -3.2986  -2.9362  -2.7659  -2.4612  -2.3136
     4.9806   5.5241   6.5412   6.6661

     occupation numbers 
     1.0000   1.0000   1.0000   1.0000   1.0000   1.0000   1.0000   1.0000
     1.0000   1.0000   1.0000   1.0000   1.0000   1.0000   1.0000   1.0000
     0.0000   0.0000   0.0000   0.0000

          k = 0.3529 0.4706 0.0000 (  4490 PWs)   bands (ev):

   -54.0622 -54.0607 -23.5873 -23.5771 -23.5396 -23.5387 -23.4865 -23.4644
   -14.2051 -14.1966  -3.3768  -3.3565  -2.8672  -2.8093  -2.4156  -2.3634
     5.1679   5.3532   6.5400   6.5784

     occupation numbers 
     1.0000   1.0000   1.0000   1.0000   1.0000   1.0000   1.0000   1.0000
     1.0000   1.0000   1.0000   1.0000   1.0000   1.0000   1.0000   1.0000
     0.0000   0.0000   0.0000   0.0000

          k = 0.4118 0.4118 0.0000 (  4494 PWs)   bands (ev):

   -54.0622 -54.0607 -23.6090 -23.6021 -23.5294 -23.5209 -23.5006 -23.4669
   -14.2053 -14.1896  -3.3732  -3.3261  -2.9265  -2.8058  -2.4460  -2.3471
     5.0786   5.4130   6.4836   6.5615

     occupation numbers 
     1.0000   1.0000   1.0000   1.0000   1.0000   1.0000   1.0000   1.0000
     1.0000   1.0000   1.0000   1.0000   1.0000   1.0000   1.0000   1.0000
     0.0000   0.0000   0.0000   0.0000

          k = 0.4118 0.4706 0.0000 (  4496 PWs)   bands (ev):

   -54.0621 -54.0607 -23.6075 -23.5970 -23.5460 -23.5425 -23.4917 -23.4614
   -14.1953 -14.1900  -3.3778  -3.3626  -2.8813  -2.8386  -2.4206  -2.3854
     5.1764   5.2880   6.4644   6.4908

     occupation numbers 
     1.0000   1.0000   1.0000   1.0000   1.0000   1.0000   1.0000   1.0000
     1.0000   1.0000   1.0000   1.0000   1.0000   1.0000   1.0000   1.0000
     0.0000   0.0000   0.0000   0.0000

          k = 0.4706 0.4706 0.0000 (  4496 PWs)   bands (ev):

   -54.0621 -54.0607 -23.6085 -23.6011 -23.5446 -23.5271 -23.4878 -23.4842
   -14.1892 -14.1873  -3.3857  -3.3802  -2.8641  -2.8489  -2.4193  -2.4066
     5.1892   5.2260   6.4312   6.4406

     occupation numbers 
     1.0000   1.0000   1.0000   1.0000   1.0000   1.0000   1.0000   1.0000
     1.0000   1.0000   1.0000   1.0000   1.0000   1.0000   1.0000   1.0000
     0.0000   0.0000   0.0000   0.0000

     the Fermi energy is    -0.1041 ev

     Writing output data file nacl.save/

     init_run     :      0.38s CPU      0.43s WALL (       1 calls)
     electrons    :     35.50s CPU     41.49s WALL (       1 calls)

     Called by init_run:
     wfcinit      :      0.00s CPU      0.00s WALL (       1 calls)
     wfcinit:atom :      0.06s CPU      0.07s WALL (      45 calls)
     wfcinit:wfcr :      2.31s CPU      2.74s WALL (      45 calls)
     potinit      :      0.05s CPU      0.05s WALL (       1 calls)
     hinit0       :      0.31s CPU      0.35s WALL (       1 calls)

     Called by electrons:
     c_bands      :     35.50s CPU     41.48s WALL (       1 calls)
     v_of_rho     :      0.04s CPU      0.05s WALL (       1 calls)
     v_h          :      0.00s CPU      0.00s WALL (       1 calls)
     v_xc         :      0.04s CPU      0.04s WALL (       1 calls)

     Called by c_bands:
     init_us_2    :      0.09s CPU      0.12s WALL (      45 calls)
     cegterg      :     32.46s CPU     37.61s WALL (      68 calls)

     Called by sum_band:

     Called by *egterg:
     h_psi        :     23.03s CPU     26.75s WALL (    1033 calls)
     g_psi        :      0.56s CPU      0.63s WALL (     920 calls)
     cdiaghg      :      1.15s CPU      1.36s WALL (     965 calls)
     cegterg:over :      4.24s CPU      4.86s WALL (     920 calls)
     cegterg:upda :      3.38s CPU      3.99s WALL (     920 calls)
     cegterg:last :      1.65s CPU      1.88s WALL (     158 calls)

     Called by h_psi:
     h_psi:pot    :     22.78s CPU     26.46s WALL (    1033 calls)
     h_psi:calbec :      2.49s CPU      2.92s WALL (    1033 calls)
     vloc_psi     :     17.75s CPU     20.66s WALL (    1033 calls)
     add_vuspsi   :      2.53s CPU      2.88s WALL (    1033 calls)

     General routines
     calbec       :      2.49s CPU      2.91s WALL (    1033 calls)
     fft          :      0.02s CPU      0.02s WALL (      12 calls)
     fftw         :     14.96s CPU     17.40s WALL (   19934 calls)
     davcio       :      0.04s CPU      0.44s WALL (      90 calls)

     Parallel routines

     PWSCF        :    36.17s CPU        42.52s WALL


   This run was terminated on:  14:10:13  28Oct2019            

=------------------------------------------------------------------------------=
   JOB DONE.
=------------------------------------------------------------------------------=
